<?xml version="1.0" encoding="UTF-8" standalone="no"?>
<svg xmlns:rdf="http://www.w3.org/1999/02/22-rdf-syntax-ns#" xmlns="http://www.w3.org/2000/svg" version="1.1" xmlns:cc="http://creativecommons.org/ns#" xmlns:xlink="http://www.w3.org/1999/xlink" viewBox="0 0 11.985984 12.745733" xmlns:dc="http://purl.org/dc/elements/1.1/">
<metadata>
<rdf:RDF>
<cc:Work rdf:about="">
<dc:format>image/svg+xml</dc:format>
<dc:type rdf:resource="http://purl.org/dc/dcmitype/StillImage"/>
</cc:Work>
</rdf:RDF>
</metadata>
<defs>
<linearGradient id="a" y2="719.9376" gradientUnits="userSpaceOnUse" x2="54.73784" gradientTransform="matrix(1.007189 0 0 .98662 -.460106 9.713565)" y1="729.3028" x1="64.23671">
<stop stop-color="#db5d00" offset="0"/>
<stop stop-color="#ffd749" offset=".35076979"/>
<stop stop-color="#fff593" offset=".59668732"/>
<stop stop-color="#fff7c2" offset=".78382427"/>
<stop stop-color="#fff" offset="1"/>
</linearGradient>
</defs>
<g transform="matrix(.749124 0 0 .633637 -37.4562 -448.95797)">
<rect style="color:#000000" fill-opacity="0" rx="5.339582" ry="0" height="15.99362" width="16" y="710.0064" x="50" stroke-width="1px"/>
<path d="m62.5 716.2876v-2.625c-0.50241-4.6537-5.46728-5.4081-7.25748-3.2231" stroke="#000" stroke-linecap="round" stroke-width="1.451453" fill="none"/>
<g transform="matrix(1.024267 -.199097 .200349 1.030708 -144.8304 -9.554702)" fill-rule="evenodd">
<path stroke-linejoin="round" d="m52.4921 725.7923 0.39242-9.7691 10.51742-0.2251-0.36298 9.9178-10.54686 0.0764z" stroke="#000" stroke-linecap="round" stroke-width="1.109341" fill="url(#a)"/>
<path d="m57.96875 718.4687c-0.82847 0.0172-1.48611 0.7028-1.46875 1.5313l1 1c-0.0076 0.5409-0.72344 1.5441-0.25619 1.8168s1.04513 0.2727 1.51238 0-0.24854-1.2759-0.25619-1.8168l1-1c0.0086-0.4087-0.15001-0.8031-0.43905-1.0922-0.28905-0.289-0.68352-0.4476-1.0922-0.4391z"/>
</g>
</g>
</svg>
