<?xml version="1.0" encoding="UTF-8" standalone="no"?>
<svg xmlns:rdf="http://www.w3.org/1999/02/22-rdf-syntax-ns#" xmlns="http://www.w3.org/2000/svg" version="1.1" xmlns:cc="http://creativecommons.org/ns#" viewBox="0 0 28 28" xmlns:dc="http://purl.org/dc/elements/1.1/">
<metadata>
<rdf:RDF>
<cc:Work rdf:about="">
<dc:format>image/svg+xml</dc:format>
<dc:type rdf:resource="http://purl.org/dc/dcmitype/StillImage"/>
</cc:Work>
</rdf:RDF>
</metadata>
<g transform="translate(0)">
<rect height="28" width="28" y="0" x="0" fill="none"/>
<g aria-label="T" stroke="#000" stroke-width=".75" fill="#4d4d4d">
<path d="m2.28125 2.4199219h13.4375v2.8417968h-4.833984v11.738281h-3.759766v-11.738281h-4.84375z"/>
</g>
<g aria-label="T" stroke="#000" stroke-width=".75" fill="#4d4d4d">
<path d="m13.96875 13.251953h8.0625v1.705078h-2.900391v7.042969h-2.255859v-7.042969h-2.90625z"/>
</g>
<path stroke-linejoin="round" d="m20 2h6v24h-24v-16" stroke="#000" stroke-linecap="round" stroke-width="1.5" fill="none"/>
<path d="m3 3h12" stroke="#999" stroke-linecap="round" stroke-width=".75" fill="none"/>
<path d="m7.8 5.5v10.75" stroke="#999" stroke-linecap="round" stroke-width=".75" fill="none"/>
<path d="m14.6 13.75h6.8" stroke="#999" stroke-linecap="round" stroke-width=".5" fill="#4d4d4d"/>
<path d="m17.5 14.85v6.5" stroke="#999" stroke-linecap="round" stroke-width=".5" fill="#4d4d4d"/>
</g>
</svg>
