<?xml version="1.0" encoding="UTF-8" standalone="no"?>
<svg xmlns:rdf="http://www.w3.org/1999/02/22-rdf-syntax-ns#" xmlns="http://www.w3.org/2000/svg" version="1.1" xmlns:cc="http://creativecommons.org/ns#" viewBox="0 0 12.000501 12.000007" xmlns:dc="http://purl.org/dc/elements/1.1/">
<metadata>
<rdf:RDF>
<cc:Work rdf:about="">
<dc:format>image/svg+xml</dc:format>
<dc:type rdf:resource="http://purl.org/dc/dcmitype/StillImage"/>
</cc:Work>
</rdf:RDF>
</metadata>
<g transform="translate(-674.9995,-244.961)">
<rect height="4.999897" width="11.00024" y="245.9612" x="674.9997" stroke-width="0"/>
<path opacity=".9" d="m683.8361 245.8988-2.2263 1.6932-2.1805-1.6583-2.2264 1.6933 2.2034 1.6758-2.1804 1.6584h4.4068l-2.1804-1.6584 2.2034-1.6758 2.1804 1.6583 2.2264-1.6933-2.2264-1.6932zm0 3.3865-2.2034 1.6759h4.4068l-2.2034-1.6759zm-8.8366-3.3691v3.3517l2.2034-1.6759-2.2034-1.6758zm0 3.3866v1.6584h2.1805l-2.1805-1.6584z" stroke-width="0" fill="#fff"/>
<path d="m675.5 246.461h11v5" transform="translate(0 -1)" stroke="#000" stroke-linecap="square" stroke-width="1px" fill="none"/>
<g transform="matrix(.695835 0 0 .741921 209.1801 63.671)">
<path fill-rule="evenodd" d="m682.3742 253.7871v2.6957h-2.8742v1.3479h2.8742v2.6957l4.3114-3.3696-4.3114-3.3697z"/>
<path d="m505.9072 37.19576h1.4371" transform="translate(170,219.961)" stroke="#000" stroke-linecap="square" stroke-width="1.391772px" fill="none"/>
<path d="m672.3144 257.1568h1.4371" stroke="#000" stroke-width="1.391772px" fill="none"/>
</g>
</g>
</svg>
