<?xml version="1.0" encoding="UTF-8" standalone="no"?>
<svg xmlns:rdf="http://www.w3.org/1999/02/22-rdf-syntax-ns#" xmlns="http://www.w3.org/2000/svg" version="1.1" xmlns:cc="http://creativecommons.org/ns#" xmlns:xlink="http://www.w3.org/1999/xlink" viewBox="0 0 16.000493 15.999457" xmlns:dc="http://purl.org/dc/elements/1.1/">
<metadata>
<rdf:RDF>
<cc:Work rdf:about="">
<dc:format>image/svg+xml</dc:format>
<dc:type rdf:resource="http://purl.org/dc/dcmitype/StillImage"/>
</cc:Work>
</rdf:RDF>
</metadata>
<defs>
<radialGradient id="a" cx="171.7755" gradientUnits="userSpaceOnUse" cy="153.063" r="7.469679" gradientTransform="matrix(1.122233,1.252981,-2.05495,1.830229,297.3402,-339.2527)">
<stop stop-color="#fff" offset="0"/>
<stop stop-color="#98b6d3" offset="1"/>
</radialGradient>
</defs>
<g transform="matrix(.996399 0 0 .998404 -4.883163 -247.54021)">
<g transform="matrix(1 0 0 .997925 -.07212 .477615)">
<circle stroke-linejoin="round" style="color:#000000" stroke-width=".9403349" stroke-opacity=".2651297" stroke-linecap="round" transform="matrix(1.00786,0,0,1.007983,-167.1731,96.0569)" stroke="#000" cy="159" cx="179" stroke-miterlimit="0" r="7" fill="none"/>
<rect style="color:#000000" height="16" width="16" y="248.029" x="5.0273" fill="none"/>
<path fill-rule="evenodd" d="m18.03125 259-2.03125 2.0312 3 3 2.03125-2.0312-3-3z"/>
<circle stroke-linejoin="round" style="color:#000000" stroke-width=".9931717" fill-rule="evenodd" stroke-linecap="round" transform="matrix(1.00786,0,0,1.007983,-167.8785,95.25998)" stroke="#000" cy="159" cx="179" stroke-miterlimit="0" r="7" fill="url(#a)"/>
</g>
<rect style="color:#000000" fill-rule="evenodd" transform="translate(-9.99998,20)" height="7" width="9" y="232" x="18" fill="#fff"/>
<rect style="color:#000000" fill-rule="evenodd" transform="translate(-9.99998,20)" height="1" width="1" y="232" x="18"/>
<rect style="color:#000000" fill-rule="evenodd" height="1" width="1" y="252" x="10.00002"/>
<rect style="color:#000000" fill-rule="evenodd" height="1" width="1" y="252" x="12.00002"/>
<rect style="color:#000000" fill-rule="evenodd" height="1" width="1" y="252" x="14.00002"/>
<rect style="color:#000000" fill-rule="evenodd" height="1" width="1" y="252" x="16.00002"/>
<rect style="color:#000000" fill-rule="evenodd" height="1" width="1" y="254" x="16.00002"/>
<rect style="color:#000000" fill-rule="evenodd" height="1" width="1" y="256" x="16.00002"/>
<rect style="color:#000000" fill-rule="evenodd" height="1" width="1" y="258" x="16.00002"/>
<rect style="color:#000000" fill-rule="evenodd" height="1" width="1" y="258" x="14.00002"/>
<rect style="color:#000000" fill-rule="evenodd" height="1" width="1" y="258" x="12.00002"/>
<rect style="color:#000000" fill-rule="evenodd" height="1" width="1" y="258" x="10.00002"/>
<rect style="color:#000000" fill-rule="evenodd" height="1" width="1" y="258" x="8.00002"/>
<rect style="color:#000000" fill-rule="evenodd" height="1" width="1" y="256" x="8.00002"/>
<rect style="color:#000000" fill-rule="evenodd" height="1" width="1" y="254" x="8.00002"/>
</g>
</svg>
